<?xml version="1.0" encoding="utf-8"?>
<!-- Generator: Adobe Illustrator 22.0.1, SVG Export Plug-In . SVG Version: 6.00 Build 0)  -->
<svg version="1.1" id="Layer_1" xmlns="http://www.w3.org/2000/svg" xmlns:xlink="http://www.w3.org/1999/xlink" x="0px" y="0px"
	 viewBox="0 0 120 120" style="enable-background:new 0 0 120 120;" xml:space="preserve">
<style type="text/css">
	.st0{fill:#434343;}
</style>
<g>
	<path class="st0" d="M60,6c14.9,0,28.4,6,38.2,15.8S114,45.1,114,60s-6,28.4-15.8,38.2S74.9,114,60,114s-28.4-6-38.2-15.8
		S6,74.9,6,60s6-28.4,15.8-38.2S45.1,6,60,6z M96,24C86.8,14.8,74.1,9.1,60,9.1S33.2,14.8,24,24S9.1,45.9,9.1,60S14.8,86.8,24,96
		s21.9,14.9,36,14.9s26.8-5.7,36-14.9s14.9-21.9,14.9-36S105.2,33.2,96,24z"/>
	<path class="st0" d="M77,39.9H47.8v-2.1h-0.2v-0.5h-4.9v0.5h-0.2v2.1H42c-7.4,0-13.4,6-13.4,13.4v15.3c0,7.4,6,13.4,13.4,13.4h35
		c7.4,0,13.4-6,13.4-13.4V53.3C90.4,45.9,84.4,39.9,77,39.9z M51,50.9c-1.1,0-2.1-0.9-2.1-2.1v-3.3c0-1.1,0.9-2.1,2.1-2.1h5.2
		c1.1,0,2.1,0.9,2.1,2.1v3.3c0,1.1-0.9,2.1-2.1,2.1H51z M80.9,71c-2.6,2.6-6.1,4.2-10,4.2s-7.5-1.6-10-4.2c-2.6-2.6-4.2-6.1-4.2-10
		c0-3.9,1.6-7.5,4.2-10c2.6-2.6,6.1-4.2,10-4.2s7.5,1.6,10,4.2c2.6,2.6,4.2,6.1,4.2,10C85,64.9,83.4,68.5,80.9,71z"/>
	<path class="st0" d="M78.5,53.3c-2-2-4.7-3.2-7.7-3.2s-5.7,1.2-7.7,3.2S60,58,60,61c0,3,1.2,5.7,3.2,7.7s4.6,3.2,7.7,3.2
		s5.7-1.2,7.7-3.2s3.2-4.7,3.2-7.7C81.7,58,80.4,55.3,78.5,53.3z M70.8,68.5c-4.2,0-7.5-3.4-7.5-7.5c0-4.2,3.4-7.5,7.5-7.5
		c4.2,0,7.5,3.4,7.5,7.5C78.3,65.2,75,68.5,70.8,68.5z"/>
	<path class="st0" d="M60,12.9c13,0,24.7,5.3,33.3,13.8c8.5,8.5,13.8,20.3,13.8,33.3c0,13-5.3,24.7-13.8,33.3
		c-8.5,8.5-20.3,13.8-33.3,13.8c-13,0-24.7-5.3-33.3-13.8C18.2,84.8,12.9,73,12.9,60c0-13,5.3-24.7,13.8-33.3
		C35.2,18.2,47,12.9,60,12.9z M91.4,28.6c-8-8-19.1-13-31.4-13s-23.4,5-31.4,13s-13,19.1-13,31.4s5,23.4,13,31.4s19.1,13,31.4,13
		s23.4-5,31.4-13s13-19.1,13-31.4S99.4,36.6,91.4,28.6z"/>
</g>
</svg>
