<?xml version="1.0" encoding="utf-8"?>
<!-- Generator: Adobe Illustrator 22.0.1, SVG Export Plug-In . SVG Version: 6.00 Build 0)  -->
<svg version="1.1" id="Layer_1" xmlns="http://www.w3.org/2000/svg" xmlns:xlink="http://www.w3.org/1999/xlink" x="0px" y="0px"
	 viewBox="0 0 198.4 198.4" style="enable-background:new 0 0 198.4 198.4;" xml:space="preserve">
<style type="text/css">
	.st0{fill:#FFFFFF;}
	.st1{fill:#434444;}
</style>
<circle class="st1" cx="99.2" cy="99.2" r="78"/>
<g>
	<path class="st0" d="M67.7,150.6c0.4,0,0.7,0,0.9,0c22.1,0,44.2,0,66.4,0c5,0,8.9-4,8.9-9c-0.1-4.7-4-8.6-8.7-8.7
		c-6.3,0-12.6,0-19,0c-6.6,0-12.2-5.2-12.4-11.8c-0.2-7.5-0.2-15,0-22.5c0.2-6.5,5.7-11.7,12.2-11.8c2.2,0,4.5,0,6.9,0
		c-0.3-0.5-0.6-0.8-0.8-1.1c-3.2-4.3-6.5-8.5-9.5-12.9c-7.2-10.2-2.8-24.5,8.7-28.9c11.4-4.4,24,3.2,25.4,15.3
		c0.6,5.3-0.7,10.2-3.9,14.5c-4.2,5.6-8.4,11.2-12.6,16.9c-0.7,0.9-1.4,1.3-2.6,1.3c-3.7,0-7.4,0-11.1,0c-4.7,0-7.9,3.2-7.9,7.9
		c0,6.7,0,13.4,0,20.1c0,4.8,3.2,8,8,8c6,0,12,0,18,0c6.7,0,12.2,4.4,13.8,10.9c2,8.3-4.6,16.8-13.1,16.9c-24.2,0.1-48.4,0-72.7,0
		c-1,0-1.8-0.4-2.4-1.2c-6.5-8.8-13.2-17.5-19.6-26.3c-11.2-15.5-3.3-37.7,15.1-42.7c13.9-3.7,28.5,4.6,32.6,18.7
		c2.6,9,1,17.3-4.5,24.8c-5.1,6.9-10.3,13.8-15.5,20.7C68.1,149.9,68,150.2,67.7,150.6z M62.5,149c0.2-0.3,0.4-0.5,0.5-0.6
		c5.6-7.5,11.3-14.9,16.8-22.5c5.6-7.7,6.3-16,1.9-24.4C75.9,90.5,64,87.3,54.3,91.3c-12,5-18.8,21.3-9.1,34.5
		c4.1,5.5,8.2,11,12.3,16.5C59.2,144.5,60.8,146.7,62.5,149z M128,85.1c0.2-0.2,0.3-0.3,0.4-0.4c3.6-4.7,7.2-9.5,10.7-14.2
		c2.4-3.2,3.2-6.9,2.6-10.8c-1.2-8-9.2-13.4-16.9-11.4c-9.3,2.4-13.6,13.7-8.1,21.7c1.7,2.5,3.7,5,5.5,7.4
		C124.1,79.9,126.1,82.4,128,85.1z"/>
	<path class="st0" d="M62.5,98.8c6,0,10.7,4.8,10.7,10.8c0,5.8-4.9,10.7-10.7,10.7c-6,0-10.8-4.9-10.7-10.8
		C51.8,103.5,56.5,98.8,62.5,98.8z M56.8,109.5c0,3.2,2.6,5.7,5.8,5.7c3,0,5.6-2.6,5.6-5.7c0-3.2-2.6-5.8-5.7-5.7
		C59.3,103.8,56.8,106.3,56.8,109.5z"/>
	<path class="st0" d="M128,53.5c4.5,0,8,3.5,8,8c0,4.4-3.5,7.9-7.9,8c-4.4,0.1-8.1-3.6-8-8C120.1,57,123.6,53.5,128,53.5z
		 M128.1,58.6c-1.7,0-2.9,1.3-2.9,3c0,1.6,1.3,2.9,2.9,2.9c1.6,0,2.9-1.3,2.9-2.9C131,59.8,129.7,58.6,128.1,58.6z"/>
</g>
</svg>
